module firefly

go 1.14

require (
	github.com/adzeitor/mediatr v0.0.2
	github.com/gin-gonic/gin v1.7.4
	github.com/go-openapi/jsonreference v0.19.6 // indirect
	github.com/go-openapi/swag v0.19.15 // indirect
	github.com/go-playground/validator/v10 v10.9.0 // indirect
	github.com/go-stack/stack v1.8.1 // indirect
	github.com/google/uuid v1.3.0
	github.com/json-iterator/go v1.1.12 // indirect
	github.com/mailru/easyjson v0.7.7 // indirect
	github.com/mattn/go-isatty v0.0.14 // indirect
	github.com/modern-go/concurrent v0.0.0-20180306012644-bacd9c7ef1dd // indirect
	github.com/spf13/viper v1.9.0
	github.com/stretchr/testify v1.7.0
	github.com/swaggo/files v0.0.0-20210815190702-a29dd2bc99b2 // indirect
	github.com/swaggo/gin-swagger v1.3.2 // indirect
	github.com/swaggo/swag v1.7.3
	github.com/ugorji/go v1.2.6 // indirect
	go.mongodb.org/mongo-driver v1.7.2
	golang.org/x/crypto v0.0.0-20210921155107-089bfa567519 // indirect
	golang.org/x/net v0.0.0-20210924151903-3ad01bbaa167 // indirect
	golang.org/x/sys v0.0.0-20210925032602-92d5a993a665 // indirect
	golang.org/x/text v0.3.7 // indirect
	golang.org/x/tools v0.1.6 // indirect
)
