{
  "version": 2,
  "name": "Firefly case study",
  "port": 8081,
  "cache_ttl": "3600s",
  "timeout": "30s",
  "extra_config": {},
  "endpoints": [
    {
      "endpoint": "/api/v1/order/{orderId}",
      "method": "GET",
      "output_encoding": "no-op",
      "backend": [
        {
          "host": ["http://order:8080"],
          "encoding": "no-op",
          "url_pattern": "/api/v1/order/{orderId}"
        }
      ]
    },
    {
      "endpoint": "/api/v1/order/{orderId}",
      "output_encoding": "no-op",
      "method": "DELETE",
      "backend": [
        {
          "host": ["http://order:8080"],
          "encoding": "no-op",
          "url_pattern": "/api/v1/order/{orderId}"
        }
      ]
    },
    {
      "endpoint": "/api/v1/order/{orderId}",
      "output_encoding": "no-op",
      "method": "PUT",
      "backend": [
        {
          "host": ["http://order:8080"],
          "encoding": "no-op",
          "url_pattern": "/api/v1/order/{orderId}"
        }
      ]
    },
    {
      "endpoint": "/api/v1/order",
      "output_encoding": "no-op",
      "method": "POST",
      "backend": [
        {
          "host": ["http://order:8080"],
          "encoding": "no-op",
          "url_pattern": "/api/v1/order"
        }
      ]
    },
    {
      "endpoint": "/api/v1/reporting/{geometryId}/count",
      "output_encoding": "no-op",
      "method": "GET",
      "backend": [
        {
          "host": ["http://reporting:8080"],
          "encoding": "no-op",
          "url_pattern": "/api/v1/reporting/{geometryId}/count"
        }
      ]
    }
  ]
}
